




#sql("BrowseAllStudentInfo")
select * from student
#end
#sql("BrowseAllAdminInfo")
select * from admin
#end

#sql("uerInfo")
SELECT * from collection,good where collection.goodId=good.id and collection.userId=#para(0)
#end

#sql("BrowseGoodByType")
SELECT
	good.*,
	student.stuName
FROM
	good,
	student
WHERE
	typeId =#para(0)
	AND good.userId = student.stuId
	and good.`status`=1
ORDER BY
	publishTime DESC
#end

#sql("BrowseGoodByNull")
SELECT
	good.*,
	student.stuName
FROM
	good,
	student
WHERE
	good.userId = student.stuId
AND
good.`status`=1
ORDER BY
	publishTime DESC
#end

#sql("check_login_admin")
SELECT
	*
FROM
	admin
WHERE
	id = ?
AND password  = ?
#end


#sql("check_login_stu")
SELECT
	*
FROM
	student
WHERE
	student.stuId = ?
AND student. PASSWORD = ?

#end